{
  "success": true,
  "message": "Zones retrieved successfully",
  "data": [
    {
      "id": 1,
      "name": "example.com",
      "type": "MASTER",
      "created_at": "2025-01-01 12:00:00"
    }
  ],
  "pagination": {
    "current_page": 1,
    "per_page": 25,
    "total": 100,
    "last_page": 4
  }
}
